Bellabeat Case Study
…
Summary statistics were calculated for steps taken and calories
burned per day, and can be viewed in the summarized table.

summarized <- data.df %>%
  group_by(ActivityDate) %>%
  summarize(min_steps = min(TotalSteps), max_steps = max(TotalSteps), avg_steps = mean(TotalSteps),
            med_steps = median(TotalSteps),total_steps = sum(TotalSteps),min_cals = min(Calories), max_cals = max(Calories), 
            avg_cals = mean(Calories), med_cals = median(Calories),total_cals = sum(Calories))

summarized

## # A tibble: 31 × 11
##    ActivityDate min_st…¹ max_s…² avg_s…³ med_s…⁴ total…⁵ min_c…⁶ max_c…⁷ avg_c…⁸
##    <date>          <dbl>   <dbl>   <dbl>   <dbl>   <dbl>   <dbl>   <dbl>   <dbl>
##  1 2016-04-12          0   23186   8237.   8163   271816    1432    3921   2391.
##  2 2016-04-13          0   16433   7199.   7007   237558    1411    4079   2287.
##  3 2016-04-14          0   21129   7744.   7910   255538    1431    4163   2356.
##  4 2016-04-15        980   20669   7534.   7198   248617    1344    4005   2355.
##  5 2016-04-16          0   29326   8679.   7097   277733    1373    4547   2393.
##  6 2016-04-17          0   18827   6409.   6186.  205096    1214    4552   2231.
##  7 2016-04-18          0   17076   7897.   8004.  252703    1419    4157   2333.
##  8 2016-04-19          0   18785   8049.   7830.  257557    1356    4092   2359.
##  9 2016-04-20          0   19948   8163.   8562.  261215    1349    3787   2395.
## 10 2016-04-21          0   19542   8244.   8858   263795    1370    4900   2422.
## # … with 21 more rows, 2 more variables: med_cals <dbl>, total_cals <dbl>, and
## #   abbreviated variable names ¹​min_steps, ²​max_steps, ³​avg_steps, ⁴​med_steps,
## #   ⁵​total_steps, ⁶​min_cals, ⁷​max_cals, ⁸​avg_cals
…
